{"success":true,"data":{"patients":[{"id":"pat_001","name":"張三","bedNumber":"I-1","medicalRecordNumber":"123456","age":65,"gender":"男","height":170.0,"weight":65.0,"bmi":22.5,"diagnosis":"重度肺炎併呼吸衰竭","symptoms":["COVID-19 Complicated with Pulmonary Infection","Respiratory Failure","Septic Shock"],"intubated":false,"criticalStatus":"嚴重","sedation":["Dormicum"],"analgesia":["Morphine"],"nmb":[],"admissionDate":"2025-10-15","icuAdmissionDate":"2025-10-17","ventilatorDays":6,"attendingPhysician":"李穎灝","department":"內科-李穎灝","unit":"加護病房一","alerts":["血鉀偏低","呼吸抑制風險"],"consentStatus":"valid","allergies":["Penicillin"],"bloodType":"A+","codeStatus":"Full Code","hasDNR":false,"isIsolated":false,"hasUnreadMessages":true,"lastUpdate":"2026-01-11T00:00:00+00:00"}],"pagination":{"page":1,"limit":1,"total":4,"totalPages":4}}}